Categories:Games
License:GPL-3.0-or-later
Web Site:http://shatteredpixel.tumblr.com
Source Code:https://github.com/00-Evan/shattered-pixel-dungeon
Issue Tracker:https://github.com/00-Evan/shattered-pixel-dungeon/issues
Bitcoin:1LyLJAzxCfieivap1yK3iCpGoUmzAnjdyK

Auto Name:Shattered Pixel Dungeon
Summary:Play a rogue-like game
Description:
Traditional roguelike game with pixel-art graphics and simple interface. Based
on [[com.watabou.pixeldungeon]].
.

Repo Type:git
Repo:https://github.com/00-Evan/shattered-pixel-dungeon

Build:0.2.2a,14
    commit=127c74696ade0be0c3824d9373f49b8d9b6e6179
    srclibs=PDClasses-shattered@f2bf9c65809f50ffd372f7d5e3df181cf970f892
    prebuild=cp -R $$PDClasses-shattered$$/com/watabou/* src/com/shatteredpixel/ && \
        echo -e 'java.source=1.7\njava.target=1.7\njava.encoding=ISO-8859-1' >> ant.properties
    target=android-19

Build:0.2.2b,15
    commit=e58df1bc9ccb77fd3218775639650f75a5865172
    srclibs=PDClasses-shattered@f2bf9c65809f50ffd372f7d5e3df181cf970f892
    prebuild=cp -R $$PDClasses-shattered$$/com/watabou/* src/com/shatteredpixel/ && \
        echo -e 'java.source=1.7\njava.target=1.7\njava.encoding=ISO-8859-1' >> ant.properties
    target=android-19

Build:0.2.3a,27
    commit=513b1213bcd7ef885c8d21980c3f4ac703fe035f
    srclibs=PDClasses-shattered@0d890613f07b065d6f2f9b225ddf13564fdb128f
    prebuild=cp -R $$PDClasses-shattered$$/com/watabou/* src/com/shatteredpixel/ && \
        echo -e 'java.source=1.7\njava.target=1.7\njava.encoding=ISO-8859-1' >> ant.properties
    target=android-19

Build:0.2.3c,29
    commit=fd375b80e3a51c0811798bf34e58bc07383f3051
    srclibs=PDClasses-shattered@7c21c8107bd85e9c572c68018f1d7e2e2f941f50
    prebuild=cp -R $$PDClasses-shattered$$/com/watabou/* src/com/shatteredpixel/ && \
        echo -e 'java.source=1.7\njava.target=1.7\njava.encoding=ISO-8859-1' >> ant.properties
    target=android-19

Build:0.2.3d,30
    commit=2119f0d1b904db819b48204edb149f32650fad13
    srclibs=PDClasses-shattered@7c21c8107bd85e9c572c68018f1d7e2e2f941f50
    prebuild=cp -R $$PDClasses-shattered$$/com/watabou/* src/com/shatteredpixel/ && \
        echo -e 'java.source=1.7\njava.target=1.7\njava.encoding=ISO-8859-1' >> ant.properties
    target=android-19

Build:0.2.3e,31
    commit=520131fb2d3cae77a741c36cd3016121df76d0c4
    srclibs=PDClasses-shattered@7c21c8107bd85e9c572c68018f1d7e2e2f941f50
    prebuild=cp -R $$PDClasses-shattered$$/com/watabou/* src/com/shatteredpixel/ && \
        echo -e 'java.source=1.7\njava.target=1.7\njava.encoding=ISO-8859-1' >> ant.properties
    target=android-19

Build:0.2.3f,32
    commit=11d550cbe0d4136c78574cec0bda6ddb8af2b6da
    srclibs=PDClasses-shattered@7c21c8107bd85e9c572c68018f1d7e2e2f941f50
    prebuild=cp -R $$PDClasses-shattered$$/com/watabou/* src/com/shatteredpixel/ && \
        echo -e 'java.source=1.7\njava.target=1.7\njava.encoding=ISO-8859-1' >> ant.properties
    target=android-19

Build:0.2.4b,35
    commit=22d072f3e7e
    srclibs=PDClasses-shattered@35fad7951a
    prebuild=cp -R $$PDClasses-shattered$$/com/watabou/* src/com/shatteredpixel/ && \
        echo -e 'java.source=1.7\njava.target=1.7\njava.encoding=ISO-8859-1' >> ant.properties
    target=android-19

Build:0.2.4c,36
    commit=60076db78c203f33b49be0f1f957af9821d9e306
    srclibs=PDClasses-shattered@5c7c4238836ce468fc88f083b85a5d775877d988
    prebuild=cp -R $$PDClasses-shattered$$/com/watabou/* src/com/shatteredpixel/ && \
        echo -e 'java.source=1.7\njava.target=1.7\njava.encoding=ISO-8859-1' >> ant.properties
    target=android-19

Build:0.2.4d,38
    commit=45c92a66a9b61bea892deab7b79d18785496f967
    srclibs=PDClasses-shattered@9dccea42ffbe25bb60866710a4e08e66b58c05fd
    prebuild=cp -R $$PDClasses-shattered$$/com/watabou/* src/com/shatteredpixel/ && \
        echo -e 'java.source=1.7\njava.target=1.7\njava.encoding=ISO-8859-1' >> ant.properties
    target=android-19

Build:0.3.0c,44
    commit=8c42ebda5e7cd2c223b59933980524d65d8ff7a0
    srclibs=PDClasses-shattered@43a9126642b88bd41ea4db183bc04f75839bdca5
    prebuild=cp -R $$PDClasses-shattered$$/com/watabou/* src/com/shatteredpixel/ && \
        echo -e 'java.source=1.7\njava.target=1.7\njava.encoding=ISO-8859-1' >> ant.properties
    target=android-19

Build:0.3.0d,45
    commit=684c2caacb1775c98db4fb82306b5893a0c824a3
    srclibs=PDClasses-shattered@43a9126642b88bd41ea4db183bc04f75839bdca5
    prebuild=cp -R $$PDClasses-shattered$$/com/watabou/* src/com/shatteredpixel/ && \
        echo -e 'java.source=1.7\njava.target=1.7\njava.encoding=ISO-8859-1' >> ant.properties
    target=android-19

Build:0.3.0e,46
    commit=f4898d903b6c837acea7d34cdacb903066bea724
    srclibs=PDClasses-shattered@4aaeecf83ff10449614d43421258e3df236a5228
    prebuild=cp -R $$PDClasses-shattered$$/com/watabou/* src/com/shatteredpixel/ && \
        echo -e 'java.source=1.7\njava.target=1.7\njava.encoding=ISO-8859-1' >> ant.properties
    target=android-19

Build:0.3.1a,55
    commit=f531879f51d75d0447feb635d2d65c5f127b3c99
    srclibs=PDClasses-shattered@77b0fbd58608b08b59e86869ebeeec0f7caf93b9
    prebuild=cp -R $$PDClasses-shattered$$/com/watabou/* src/com/shatteredpixel/ && \
        echo -e 'java.source=1.7\njava.target=1.7\njava.encoding=ISO-8859-1' >> ant.properties
    target=android-19

Build:0.3.1c,57
    commit=a9fa47b9422ca15e0a37479fa3341858963c8ade
    srclibs=PDClasses-shattered@4e256b579e15fb099b4b83b608a3c78c65a4fb37
    prebuild=cp -R $$PDClasses-shattered$$/com/watabou/* src/com/shatteredpixel/ && \
        echo -e 'java.source=1.7\njava.target=1.7\njava.encoding=ISO-8859-1' >> ant.properties
    target=android-19

Build:0.3.1d,59
    commit=dab5499c223a1af25bac0ed89ecdb067b3fd0931
    srclibs=PDClasses-shattered@4e256b579e15fb099b4b83b608a3c78c65a4fb37
    prebuild=cp -R $$PDClasses-shattered$$/com/watabou/* src/com/shatteredpixel/ && \
        echo -e 'java.source=1.7\njava.target=1.7\njava.encoding=ISO-8859-1' >> ant.properties
    target=android-19

Build:0.3.2b,67
    commit=44880cb44e098f182725300d1dfbf47337b77d21
    srclibs=PDClasses-shattered@7acaef7924110c4b80a2b60fc883de2a8c21e927
    prebuild=cp -R $$PDClasses-shattered$$/com/watabou/* src/com/shatteredpixel/ && \
        echo -e 'java.source=1.7\njava.target=1.7\njava.encoding=ISO-8859-1' >> ant.properties
    target=android-19

Build:0.3.3,72
    commit=75e232a429ad03c10780aa0ca4b99900549f50fa
    srclibs=PDClasses-shattered@1c4b560b05a0e8f5ee98b1e65b6270a7d125c3a8
    prebuild=cp -R $$PDClasses-shattered$$/com/watabou/* src/com/shatteredpixel/ && \
        echo -e 'java.source=1.7\njava.target=1.7\njava.encoding=ISO-8859-1' >> ant.properties
    target=android-19

Build:0.3.3b,74
    commit=v0.3.3b
    srclibs=PDClasses-shattered@1c4b560b05a0e8f5ee98b1e65b6270a7d125c3a8
    prebuild=cp -R $$PDClasses-shattered$$/com/watabou/* src/com/shatteredpixel/ && \
        echo -e 'java.source=1.7\njava.target=1.7\njava.encoding=ISO-8859-1' >> ant.properties
    target=android-23

Build:0.3.4b,92
    commit=v0.3.4b
    srclibs=PDClasses-shattered@52858380c095895440918ae455d5a1ce505027e3
    prebuild=cp -R $$PDClasses-shattered$$/com/watabou/* src/com/shatteredpixel/ && \
        echo -e 'java.source=1.7\njava.target=1.7' >> ant.properties
    target=android-23

Build:0.3.4c,93
    commit=v0.3.4c
    srclibs=PDClasses-shattered@4342062c3f3948d7b6e8fb0d3bb1980b31e3c63e
    prebuild=cp -R $$PDClasses-shattered$$/com/watabou/* src/com/shatteredpixel/ && \
        echo -e 'java.source=1.7\njava.target=1.7' >> ant.properties
    target=android-23

Build:0.3.5a,99
    commit=v0.3.5a
    srclibs=PDClasses-shattered@4df992d4b3115ab324f2c0d52aff746edd92787a
    prebuild=cp -R $$PDClasses-shattered$$/com/watabou/* src/com/shatteredpixel/ && \
        echo -e 'java.source=1.7\njava.target=1.7' >> ant.properties
    target=android-23

Build:0.4.0,107
    commit=v0.4.0
    srclibs=PDClasses-shattered@abc43a3e3b4124972df51312d3dd7be2c1e10b6c
    prebuild=cp -R $$PDClasses-shattered$$/com/watabou/* src/com/shatteredpixel/ && \
        echo -e 'java.source=1.7\njava.target=1.7' >> ant.properties
    target=android-23

Build:0.4.1a,118
    commit=v0.4.1a
    srclibs=PDClasses-shattered@48308cd26657e5f6eb0a79ab98b9d8bdcb52d0d3
    prebuild=cp -R $$PDClasses-shattered$$/com/watabou/* src/com/shatteredpixel/ && \
        echo -e 'java.source=1.7\njava.target=1.7' >> ant.properties
    target=android-23

Build:0.4.2a,127
    commit=v0.4.2a
    subdir=core
    gradle=yes
    scandelete=SPD-classes/src/main/jniLibs/x86/libFroyoGLES20Fix.so,SPD-classes/src/main/jniLibs/armeabi/libFroyoGLES20Fix.so

Build:0.4.2b,129
    commit=v0.4.2b
    subdir=core
    gradle=yes
    scandelete=SPD-classes/src/main/jniLibs/

Build:0.4.3,139
    commit=0.4.3
    subdir=core
    gradle=yes
    scandelete=SPD-classes/src/main/jniLibs/
    preassemble=:SPD-classes:ndkBuild

Build:0.4.3a,144
    commit=v0.4.3a
    subdir=core
    gradle=yes
    scandelete=SPD-classes/src/main/jniLibs/
    preassemble=:SPD-classes:ndkBuild

Build:0.4.3c,148
    commit=v0.4.3c
    subdir=core
    gradle=yes
    scandelete=SPD-classes/src/main/jniLibs/
    preassemble=:SPD-classes:ndkBuild

Build:0.5.0a,158
    commit=v0.5.0a
    subdir=core
    gradle=yes
    scandelete=SPD-classes/src/main/jniLibs/
    preassemble=:SPD-classes:ndkBuild

Build:0.5.0b,159
    commit=v0.5.0b
    subdir=core
    gradle=yes
    scandelete=SPD-classes/src/main/jniLibs/
    preassemble=:SPD-classes:ndkBuild

Build:0.6.0,181
    commit=v0.6.0
    subdir=core
    gradle=yes
    scandelete=SPD-classes/src/main/jniLibs/
    preassemble=:SPD-classes:ndkBuild

Build:0.6.0b,185
    commit=v0.6.0b
    subdir=core
    gradle=yes
    scandelete=SPD-classes/src/main/jniLibs/
    preassemble=:SPD-classes:ndkBuild

Build:0.6.1a,206
    commit=v0.6.1a
    subdir=core
    gradle=yes
    scandelete=SPD-classes/src/main/jniLibs/
    preassemble=:SPD-classes:ndkBuild

Build:0.6.1b,209
    commit=v0.6.1b
    subdir=core
    gradle=yes
    scandelete=SPD-classes/src/main/jniLibs/
    preassemble=:SPD-classes:ndkBuild

Build:0.6.2a,224
    disable=Could not find com.android.tools.build:gradle:3.0.0
    commit=v0.6.2a
    subdir=core
    gradle=yes
    scandelete=SPD-classes/src/main/jniLibs/
    preassemble=:SPD-classes:ndkBuild

Build:0.6.2d,228
    commit=v0.6.2d
    subdir=core
    gradle=yes
    scandelete=SPD-classes/src/main/jniLibs/
    preassemble=:SPD-classes:ndkBuild

Build:0.6.2e,229
    commit=v0.6.2e
    subdir=core
    gradle=yes
    scandelete=SPD-classes/src/main/jniLibs/
    preassemble=:SPD-classes:ndkBuild

Build:0.6.3a,242
    commit=v0.6.3a
    subdir=core
    gradle=yes
    scandelete=SPD-classes/src/main/jniLibs/
    preassemble=:SPD-classes:ndkBuild

Build:0.6.3b,245
    commit=v0.6.3b
    subdir=core
    gradle=yes
    scandelete=SPD-classes/src/main/jniLibs/
    preassemble=:SPD-classes:ndkBuild

Build:0.6.4,251
    disable=Could not find com.android.tools.lint:lint-gradle:26.1.0
    commit=v0.6.4
    subdir=core
    gradle=yes
    scandelete=SPD-classes/src/main/jniLibs/
    preassemble=:SPD-classes:ndkBuild

Build:0.6.4a,252
    commit=v0.6.4a
    subdir=core
    gradle=yes
    scandelete=SPD-classes/src/main/jniLibs/
    preassemble=:SPD-classes:ndkBuild

Build:0.6.5a,261
    commit=v0.6.5a
    subdir=core
    gradle=yes
    scandelete=SPD-classes/src/main/jniLibs/
    preassemble=:SPD-classes:ndkBuild

Auto Update Mode:Version v%v
Update Check Mode:Tags
Current Version:0.6.5a
Current Version Code:261
